^C:\USERS\DAM\DOCUMENTS\VISUAL STUDIO 2015\PROJECTS\CONSOLEAPPLICATION1FICHEROPERSONAS\CONSOLEAPPLICATION1FICHEROPERSONAS\DEBUG\CONSOLEAPPLICATION1FICHEROPERSONAS.OBJ|C:\USERS\DAM\DOCUMENTS\VISUAL STUDIO 2015\PROJECTS\CONSOLEAPPLICATION1FICHEROPERSONAS\CONSOLEAPPLICATION1FICHEROPERSONAS\DEBUG\STDAFX.OBJ
C:\USERS\DAM\DOCUMENTS\VISUAL STUDIO 2015\PROJECTS\CONSOLEAPPLICATION1FICHEROPERSONAS\DEBUG\CONSOLEAPPLICATION1FICHEROPERSONAS.ILK
C:\USERS\DAM\DOCUMENTS\VISUAL STUDIO 2015\PROJECTS\CONSOLEAPPLICATION1FICHEROPERSONAS\DEBUG\CONSOLEAPPLICATION1FICHEROPERSONAS.EXE
C:\USERS\DAM\DOCUMENTS\VISUAL STUDIO 2015\PROJECTS\CONSOLEAPPLICATION1FICHEROPERSONAS\DEBUG\CONSOLEAPPLICATION1FICHEROPERSONAS.PDB
